Type, log2 (2nd order moment), ,Sparsity, ,Modulus Correlation, ,Mixed Correlation, ,Harmonic Correlation
FBM (H = 0.3),-21.59874090317391,11.693474838076261,16.03069528907256,-0.06680779823362226,2.369129838380387,0.029151949353607164,0.015341277975685635,-0.004636040557673401,0.030618025497147948,-0.02145842899937913
Gaussian Noise,-0.2126294224085726,0.2135771459290808,16.02644483429302,-0.0658295814176935,2.8636526548698713,-0.04131647646440937,-0.01551910008893735,0.001459211641736602,-0.023423614001191254,-0.0047122250996663164
FBM (H = 0.8),19.410402358738608,-15.97874818751864,16.07804224636824,-0.08479976423650007,3.4588345820007076,0.01695704372377996,0.020300766613908273,-0.02991777522329806,0.06634784479722645,-0.06115398854688046
Poisson,-0.1558838658554861,0.1282298995657853,11.564431215902836,-3.2372312093553983,7.035056644292309,2.452400909292604,1.819161809899215,0.4044256691893262,6.232941759031033,2.2893219185371496
MRW (H = 0.6),7.89128460595995,-4.97195778603383,13.406537155659253,-0.6023146444709593,7.268602518722685,0.4049203307844593,0.00976657706490742,0.0018475542512003138,-0.030348029478358806,0.02809547773563622
SMRW (H = 0.6),7.581226330168455,-4.658199781837146,7.352339910544674,-0.6611566961993443,10.649666356194952,-0.017693249586193796,-0.45605388638439254,0.3289850844222519,-1.500833709423373,1.0206741333428473
Sign Poisson,-0.2179235307989338,0.17782332767893036,11.444430092618182,-3.2369016372645767,7.753093980367124,2.393367111508652,-0.041935741534048346,0.043321966909842864,-0.06918633788944432,0.113304887384929
Piece Wise Constant with Fixed Duration,14.96721945686064,-38.62670377817597,11.020554917771154,-3.678698128973615,8.450518800217274,2.7490750497930536,-0.0171721849827413,0.01087375245622321,-0.04975846744144514,0.03277651713286663
Periodic Cosine Period = 5,-875.1413197924131,403.59363093555834,15.20118497279297,2.179728028737739,9.22971271367446,1.159100124903988,0.0902785242544949,-0.06475952068642134,0.310156364257505,-0.1961544810386506
Periodic Cosine Period = 20,-562.8560729249249,408.74797454385026,18.525696598135568,1.0460218716899428,10.297806839777014,2.3820939660320093,0.06548872857128858,-0.03921455211082302,0.12510859246043673,-0.11404661402851944
Periodic Cosine Period = 100,-149.94361260482847,54.761010753232675,19.242641165707806,-0.8922733898038804,11.990062045204509,1.9448598465161606,-4.427266500145394e-09,4.3422685771676625e-09,-9.404875647833503e-15,8.904117371498535e-15
Random Phase Period = 20 Phase ~ N(0; pi / 8),-22.594327434468827,8.59730734021727,16.90645165108824,0.08843584835440899,2.7848081585431443,0.34587162041494957,0.03251996347779746,-0.016454645228135775,0.07334781102515213,-0.038505135405354024
EM Average
G10 Average
