Type, log2 (2nd order moment), Sparsity, Modulus Correlation, Mixed Correlation, Harmonic Correlation
G10 USDNOK,-0.8241250362631511,14.815720281357141,5.041258894801851,0.2815181052575162,0.6032308833027884
G10 EURUSD,1.142129000369132,15.076569422480382,4.777012413593367,-0.10793082004609508,-0.13835916900775055
G10 USDCHF,-1.1117448113521706,14.125918305815812,5.999465392242182,-0.22610340699560566,-1.157903430619256
G10 USDJPY,-0.9147491375129659,15.410048144353855,4.6028046815017,0.476934334255053,0.5681989321595695
G10 USDSEK,-1.0903063823769292,14.658125097118841,5.490616208201309,0.08170087332950762,0.4161918788859044
G10 USDCAD,-0.9635953100585142,14.193428464471921,6.74695556025883,0.03432092538192233,0.449029617466197
G10 NZDUSD,-0.5436193115558903,14.364499949776707,5.249223924309453,-0.38924020250148283,-1.1307880826729595
G10 GBPUSD,0.1591104266331338,14.421941834016074,6.33155848384258,-0.2403524797875735,-0.6159839600292287
G10 AUDUSD,-0.45249414765904505,13.487634817131244,6.559185478488994,-0.609536060962542,-2.084598415353053
G10,-0.5110438566418223,14.505987368502442,5.64423122636003,-0.07763208134103333,-0.343442416207532
EM USDPEN,-0.9665338384942288,10.961052264699411,8.846738199469574,-0.2110611250573408,-1.2257424241710142
EM USDKRW,-0.10232377829108853,11.897736995747927,9.07535436177637,0.22058574574333156,0.5606707525098578
EM USDHUF,0.3134010913835191,13.960479926304771,6.664782269039456,0.1492511963734069,1.1796500269791779
EM USDBRL,-1.0866876617533858,13.161484448415301,7.794235970623934,0.5590063902933708,1.521358158577502
EM USDCOP,2.6770567867491746,12.584979746241386,7.90284198435314,0.16995810438254008,0.5244297839778571
EM USDMYR,1.9928667821384822,9.79642828884421,9.52450922321343,0.03481617895314732,0.41100256828360204
EM USDRUB,3.3012759262865803,9.087079253867355,10.199259357955219,0.3717399334390055,0.5694939308744015
EM USDRON,-0.1669647535167964,13.196251949491257,7.912450370492189,0.19269741675446575,1.0423282787299097
EM USDSGD,-0.2647432342449222,14.755515486626264,5.165860976055123,0.23134921163331523,0.7018236772318248
EM USDILS,1.1845870816979736,14.031368566028377,6.513039269508834,0.2355499853492671,0.34680349592420684
EM USDTWD,4.623647188664346,13.829553753608115,6.085252504308754,0.027945279242603833,0.22591581079587986
EM USDZAR,-1.5086479065488927,14.335086794083876,6.498795299543281,0.587903844310781,1.9956991811089235
EM USDCNH,2.7274130324986583,12.26960088777023,8.529263307962214,0.6211435682753057,2.5408951801313595
EM USDMXN,0.4387909721095882,12.970246212093645,8.014587308827814,0.542388827665454,1.5540301855069905
EM USDINR,2.711460589120058,11.538912314761932,8.604018612838573,0.05104804734173872,-0.16801391953285266
EM USDCZK,1.3760775723678649,14.479521077152455,5.436832253847303,0.04150153264040497,0.3988682520140452
EM USDCLP,3.6225707152574538,14.364625650171037,6.570201294467842,0.26623047225652346,0.7986512669288581
EM USDPLN,1.3451887557397049,13.81235206357169,6.659270873419368,0.30384122277636616,1.0937698816444192
EM USDPHP,-1.4102268869231445,12.915570073062836,7.6892146469894795,-0.05160887513028062,-1.0497303043747244
EM USDTHB,3.0075126958027387,14.755147850499311,5.3784901570611865,0.10698116992156244,-0.5343662244211796
EM USDIDR,0.9726117034651562,10.473293339834758,9.369280715590321,-0.13117077096394042,-1.2804036323910304
EM USDTRY,0.07846599330105186,10.97876854285896,9.620140923636248,1.0616537927318515,3.4439215956900266
EM,1.1303090375822678,12.734320703897053,7.638837267317257,0.24462505222422182,0.6659570691826384
